Name,WeightClassKg,BodyweightKg,Squat1Kg,Squat2Kg,Squat3Kg,Best3SquatKg,Bench1Kg,Bench2Kg,Bench3Kg,Best3BenchKg,Deadlift1Kg,Deadlift2Kg,Deadlift3Kg,Best3DeadliftKg,TotalKg,Sex,Equipment,Event,Place,Division
Lisa Stokes,60,59.7,,,,,65,67.5,70,70,,,,,70,F,Single-ply,B,1,Open
Bronwyn Evans,90,89.8,-90,90,-100,90,50,-57.5,57.5,57.5,90,110,120,120,267.5,F,Single-ply,SBD,1,Open
James Bray,60,58.9,60,-70,70,70,60,-65.5,-65.5,60,85,95,100,100,230,M,Single-ply,SBD,1,Open
Barry Daniel,82.5,76.9,125,132.5,140,140,87.5,-92.5,-92.5,87.5,180,190,-200,190,417.5,M,Single-ply,SBD,1,Open
Nick Perks,90,84.6,160,170,-180,170,100,110,-115,110,175,185,-195,185,465,M,Single-ply,SBD,1,Open
Michael Hodge,90,88.1,125,135,140,140,95,-105,105,105,170,180,190,190,435,M,Single-ply,SBD,2,Open
Simon Wynne,90,87.8,110,120,130,130,100,105,-110,105,165,175,185,185,420,M,Single-ply,SBD,3,Open
Tom O'Donovan,100,94.7,145,155,170,170,100,105,110,110,175,190,200,200,480,M,Single-ply,SBD,1,Open
