Name,BirthYear,Country,WeightClassKg,BodyweightKg,Best3SquatKg,Best3BenchKg,Best3DeadliftKg,TotalKg,Place,Sex,Division,Event,Equipment
Anna Prinkkala,1955,Finland,44,43.2,125,60,142.5,327.5,1,F,Open,SBD,Single-ply
Helen Wolsey,,UK,44,43,115,55,135,305,2,F,Open,SBD,Single-ply
Leni Venderholst,1951,Netherlands,44,43.5,105,70,130,305,3,F,Open,SBD,Single-ply
Christa Sundin,1961,Norway,44,43.5,97.5,47.5,117.5,262.5,4,F,Open,SBD,Single-ply
Edith Scherpf,1958,Germany,44,43.8,105,50,102.5,257.5,5,F,Open,SBD,Single-ply
Irma Ruler,1956,Netherlands,48,47.8,132.5,75.5,152.5,360.5,1,F,Open,SBD,Single-ply
Vuokko Viitasaari,1954,Finland,48,47.5,125,70,147.5,342.5,2,F,Open,SBD,Single-ply
Monique Rovers,,Netherlands,48,47.5,122.5,70,140,332.5,3,F,Open,SBD,Single-ply
Do Vandenbooaerde,1966,Belgium,48,45.8,120,62.5,147.5,330,4,F,Open,SBD,Single-ply
Malou Thill,,Luxembourg,48,47.6,117.5,62.5,145,325,5,F,Open,SBD,Single-ply
Claudine Cocnacq,,France,48,47.8,120,55,140,315,6,F,Open,SBD,Single-ply
Anna-Maja Honka,1951,Sweden,48,47.4,120,60,135,315,7,F,Open,SBD,Single-ply
Ursula Eschenasvi,1957,Germany,48,47.4,,,,,DQ,F,Open,SBD,Single-ply
Sisi Dolman,1952,Netherlands,52,51.2,165,67.5,177.5,410,1,F,Open,SBD,Single-ply
Laura Locatelli,,Italy,52,51.1,150,62.5,170,382.5,2,F,Open,SBD,Single-ply
Audhild Hansen,1957,Norway,52,51.5,135,65,162.5,362.5,3,F,Open,SBD,Single-ply
Dagmar Wang,1948,Austria,52,51.6,137.5,72.5,150,360,4,F,Open,SBD,Single-ply
Liisa Jurkko,,Finland,52,51.9,145,67.5,142.5,355,5,F,Open,SBD,Single-ply
Lesley Manester,1955,UK,52,51.8,125,72.5,150,347.5,6,F,Open,SBD,Single-ply
Marie-Lis Chassin,1960,France,52,51,117.5,72.5,140,330,7,F,Open,SBD,Single-ply
Petra Jahn,1965,Germany,52,49.2,125,57.5,125,307.5,8,F,Open,SBD,Single-ply
Marie-France Vassart,1955,Belgium,52,50.9,,,,,DQ,F,Open,SBD,Single-ply
Bernadet Plouviez,1946,Belgium,52,51.2,,,,,DQ,F,Open,SBD,Single-ply
Jenny Hunter,1958,UK,56,55.7,150,87.5,177.5,415,1,F,Open,SBD,Single-ply
Marion van Wissen,,Netherlands,56,55.5,152.5,80,170,402.5,2,F,Open,SBD,Single-ply
Anna Restrup,1961,Sweden,56,55.2,140,87.5,160,387.5,3,F,Open,SBD,Single-ply
Anna Bayard,1961,France,56,54.1,132.5,77.5,167.5,377.5,4,F,Open,SBD,Single-ply
Alice Heikkala,,Finland,56,55.7,135,70,150,355,5,F,Open,SBD,Single-ply
Susanna Cunat,1959,Austria,56,55.3,130,72.5,147.5,350,6,F,Open,SBD,Single-ply
Mike Vivijes,1954,Belgium,56,55.4,125,57.5,150,332.5,7,F,Open,SBD,Single-ply
Marie-France Baron,,France,56,52.7,115,55,160,330,8,F,Open,SBD,Single-ply
Veronique Neerinckx,,Belgium,56,52.4,120,60,125,305,9,F,Open,SBD,Single-ply
Silvana Bollmann,1962,Germany,60,59.5,160,95,190,445,1,F,Open,SBD,Single-ply
Inger Blikra,1961,Norway,60,59.4,155,77.5,170,402.5,2,F,Open,SBD,Single-ply
Rita Bass,1945,UK,60,60,145,80,175,400,3,F,Open,SBD,Single-ply
Isabelle Mary,1971,France,60,58.8,150,70,157.5,377.5,4,F,Open,SBD,Single-ply
Veronique Clementelli,1969,France,60,58.4,130,72.5,160,362.5,5,F,Open,SBD,Single-ply
Karin Åkervall,1963,Sweden,60,59.7,137.5,80,,,DQ,F,Open,SBD,Single-ply
Liz Odendaal,1954,Netherlands,67.5,66.7,185,112.5,195,492.5,1,F,Open,SBD,Single-ply
Marleen Nelis,1964,Belgium,67.5,67.1,155,105,185,445,2,F,Open,SBD,Single-ply
Kristina Bohlin,1966,Sweden,67.5,64.9,165,102.5,170,437.5,3,F,Open,SBD,Single-ply
Amanda Smith,1968,UK,67.5,66.7,162.5,85,187.5,435,4,F,Open,SBD,Single-ply
Linda Diewald,1962,Germany,67.5,62.4,160,67.5,170,397.5,5,F,Open,SBD,Single-ply
Elvira Wallauch,1959,Austria,67.5,65.9,150,70,172.5,392.5,6,F,Open,SBD,Single-ply
Kirsten Vinje,1966,Norway,67.5,65.7,160,75,150,385,7,F,Open,SBD,Single-ply
Ingjerd Pytte-Sagli,1967,Norway,67.5,62.2,130,65,137.5,332.5,8,F,Open,SBD,Single-ply
Marie-Pauline Geldhof,1958,Belgium,75,70.6,175,95,212.5,482.5,1,F,Open,SBD,Single-ply
Ingrid Nelis,1964,Belgium,75,71,180,100,192.5,472.5,2,F,Open,SBD,Single-ply
Joan Williams,1967,UK,75,74.5,165,110,182.5,457.5,3,F,Open,SBD,Single-ply
Yoke van der Meulen,1951,Netherlands,75,69,165,77.5,177.5,420,4,F,Open,SBD,Single-ply
Hege Høiland,1959,Norway,75,74.4,150,90,180,420,5,F,Open,SBD,Single-ply
Heike Buch,1956,Germany,75,73.2,160,82.5,160,402.5,6,F,Open,SBD,Single-ply
Ingrid van Puffelen,,Netherlands,75,73.1,140,82.5,165,387.5,7,F,Open,SBD,Single-ply
Katja Mambrin,,Italy,75,72.4,140,67.5,152.5,360,8,F,Open,SBD,Single-ply
Renate Pabisch,1949,Austria,75,72.2,120,65,162.5,347.5,9,F,Open,SBD,Single-ply
Judy Oakes,1958,UK,82.5,79.5,215,117.5,210,542.5,1,F,Open,SBD,Single-ply
Eva Bonnaire,,Germany,82.5,79.9,165,75,205,445,2,F,Open,SBD,Single-ply
Francine Wellens,1948,Belgium,82.5,81.4,155,80,190,425,3,F,Open,SBD,Single-ply
Marleen Houg,,Netherlands,82.5,75.1,150,75,182.5,407.5,4,F,Open,SBD,Single-ply
Line Mary,1972,France,82.5,75.6,160,67.5,180,407.5,5,F,Open,SBD,Single-ply
Beverley Martin,,UK,90,88.6,185,70,197.5,452.5,1,F,Open,SBD,Single-ply
Jacqueline Pepper,,UK,90,84,165,85,190,440,2,F,Open,SBD,Single-ply
Susanne Tjernell-Formgren,1962,Sweden,90,88.6,180,87.5,170,437.5,3,F,Open,SBD,Single-ply
Myrtle Augee,,UK,90+,93.3,212.5,135,210,557.5,1,F,Open,SBD,Single-ply
Taina Hakala-Rajala,1960,Finland,90+,111.8,205,112.5,200,517.5,2,F,Open,SBD,Single-ply
Heidi Münch,1947,Germany,90+,91,170,85,202.5,457.5,3,F,Open,SBD,Single-ply
Yoke Anthonissen,,Netherlands,90+,91.8,150,72.5,160,382.5,4,F,Open,SBD,Single-ply
Martine Schaefs,,Belgium,90+,91.5,,,,,DQ,F,Open,SBD,Single-ply
