Name,Sex,Equipment,Division,BodyweightKg,WeightClassKg,Squat1Kg,Squat2Kg,Squat3Kg,Squat4Kg,Best3SquatKg,Bench1Kg,Bench2Kg,Bench3Kg,Bench4Kg,Best3BenchKg,Deadlift1Kg,Deadlift2Kg,Deadlift3Kg,Deadlift4Kg,Best3DeadliftKg,TotalKg,Event,Place
Seamus Kirwan,M,Raw,MO,97.3,100,,,,,,165,172.5,-180,,172.5,,,,,,172.5,B,1
Aivaras Ruzgys,M,Raw,MO,97.5,100,,,,,,140,150,-160,,150,,,,,,150,B,2
Billy Simms,M,Raw,MO,106.4,110,,,,,,205,220,-230,,220,,,,,,220,B,1
Dariusz Mirowski,M,Raw,MO,135.2,140,,,,,,272.5,280,-287.5,,280,,,,,,280,B,1
Mathew Balfour,M,Multi-ply,MOE,103.3,110,,,,,,250,-270,,,250,,,,,,250,B,1
Mike Gibson,M,Multi-ply,MOE,108.5,110,,,,,,270,290,-300,,290,,,,,,290,B,1
Oskars Zavarts,M,Multi-ply,MOE,133.9,140,,,,,,220,230,235,,235,,,,,,235,B,1
Ruth Whelan,F,Raw,FO,74.4,75,,,,,,,,,,,102.5,112.5,120,,120,120,D,1
Gerry McAfee,M,Multi-ply,MOE,99.4,100,,,,,,,,,,,325,-345,-345,,325,325,D,1
Jamie McNamara,M,Multi-ply,MOE,120,125,,,,,,,,,,,300,-325,-325,,300,300,D,1
Caoimh Bolton,F,Wraps,FO,51.1,52,70,80,85,,85,40,47.5,-52.5,,47.5,90,100,110,,110,242.5,SBD,1
Marie Walker,F,Wraps,FO,54.1,56,-55,-55,55,,55,35,37.5,-40,,37.5,100,107.5,-112.5,,107.5,200,SBD,1
Amy O'Neill,F,Wraps,FO,57.6,60,80,85,92.5,,92.5,45,47.5,-50,,47.5,90,100,110,,110,250,SBD,1
Donata Lukauskatie,F,Wraps,FO,59.3,60,60,70,80,,80,-45,50,55,,55,-80,90,105,,105,240,SBD,2
Liga Kondrate,F,Wraps,FO,59.4,60,-67.5,-67.5,67.5,,67.5,37.5,40,42.5,,42.5,80,90,100,,100,210,SBD,4
Ciara Fagan,F,Wraps,FO,60,60,60,67.5,-75,,67.5,40,45,-47.5,,45,90,95,100,,100,212.5,SBD,3
Emma Louise Kearney,F,Wraps,FO,65.8,67.5,70,-80,80,,80,40,45,-47.5,,45,100,110,120,,120,245,SBD,2
Sobhain Corbet,F,Wraps,FO,67.4,67.5,95,110,-117.5,,110,50,-62.5,62.5,-65,62.5,110,120,130,135,130,302.5,SBD,1
Jenny O'Brien,F,Wraps,FO,74.1,75,95,102.5,112.5,-117.5,112.5,70,75,-77.5,,75,120,132.5,-145,,132.5,320,SBD,2
Tara O'Shaughnessy,F,Wraps,FO,75,75,100,115,127.5,,127.5,60,-65,65,,65,130,140,147.5,,147.5,340,SBD,1
Rainer Altmäe,M,Wraps,MO,67.2,67.5,180,-192.5,-192.5,,180,125,132.5,137.5,140,137.5,195,210,215,-217.5,215,532.5,SBD,1
Mark Ennis,M,Wraps,MO,74.5,75,125,-135,135,,135,100,107.5,112.5,,112.5,155,160,170,,170,417.5,SBD,3
Carlos Pérez #1,M,Wraps,MO,75,75,190,200,-205,,200,100,107.5,110,,110,195,-205,-205,,195,505,SBD,2
Billy Hutchinson,M,Wraps,MO,75,75,190,205,210,,210,120,127.5,-132.5,,127.5,235,245,-252.5,,245,582.5,SBD,1
Tony Deeney,M,Wraps,MO,77.6,82.5,175,187.5,-200,,187.5,-95,-95,95,,95,230,242.5,-245,,242.5,525,SBD,3
Seán Cregan,M,Wraps,MO,79.5,82.5,190,205,210,220,210,105,112.5,117.5,120,117.5,210,220,225,230,225,552.5,SBD,1
Luke Moore,M,Wraps,MO,81.3,82.5,150,160,170,,170,90,95,-100,,95,170,185,195,,195,460,SBD,5
David Clare,M,Wraps,MO,81.4,82.5,160,170,180,,180,110,120,125,,125,-210,220,225,,225,530,SBD,2
Andy Mooney,M,Wraps,MO,81.8,82.5,147.5,160,165,,165,87.5,95,100,,100,200,210,-215,,210,475,SBD,4
Stephen Casey,M,Wraps,MO,83.9,90,190,200,220,,220,135,140,145,-150,145,265,275,282.5,-285,282.5,647.5,SBD,2
David Halpenny,M,Wraps,MO,85.8,90,115,130,-140,,130,90,100,-102.5,,100,150,160,-170,,160,390,SBD,5
Kieran Dillon,M,Wraps,MO,87.5,90,180,200,220,,220,120,130,140,,140,210,230,-240,,230,590,SBD,4
Tommy Dolan,M,Wraps,MO,88.3,90,251,-260,260,,260,170,181,-185,,181,260,281,-290,,281,722,SBD,1
Pat Curran,M,Wraps,MO,89,90,215,232.5,240,,240,145,152.5,160,,160,210,232.5,245,,245,645,SBD,3
Connor Fitzgerald,M,Wraps,MO,94.6,100,150,160,170,,170,112.5,117.5,125,,125,190,205,210,,210,505,SBD,5
Aidas Steponavičius,M,Wraps,MO,97.9,100,255,280,300,,300,145,155,160,,160,255,-270,-270,,255,715,SBD,2
Seán Hoey,M,Wraps,MO,98.6,100,282.5,-302.5,302.5,,302.5,140,150,160,,160,300,315,325,,325,787.5,SBD,1
Virginijus Zvinklys,M,Wraps,MO,98.8,100,220,235,245,,245,150,162.5,170,,170,230,240,250,,250,665,SBD,3
Ian Woods,M,Wraps,MO,99.2,100,210,225,235,,235,140,150,160,,160,230,250,270,,270,665,SBD,4
Kestutis Augylius,M,Wraps,MO,105.7,110,-280,280,-290,,280,180,190,200,,200,280,-290,300,,300,780,SBD,3
Shane O'Neill,M,Wraps,MO,106,110,290,305,312.5,,312.5,170,180,190,195,190,305,320,330,-337.5,330,832.5,SBD,2
Richie Penkert,M,Wraps,MO,107.7,110,260,-282.5,,,260,155,162.5,-170,,162.5,120,170,200,,200,622.5,SBD,4
Nerijus Cekas,M,Wraps,MO,108,110,290,310,330,,330,190,200,210,,210,300,-325,-325,,300,840,SBD,1
Eamonn Harford,M,Wraps,MO,121.2,125,190,210,-220,,210,140,147.5,152.5,,152.5,260,275,290,,290,652.5,SBD,1
Witold Wolnowski,M,Wraps,MO,126.3,140,290,315,340,,340,210,227.5,235,,235,320,360,,,360,935,SBD,1
Darran Kennedy,M,Wraps,MO,144,,280,300,320,,320,160,180,-190,,180,270,300,,,300,800,SBD,1
Adam Priestly,M,Multi-ply,MOE,58.4,60,-182.5,-182.5,182.5,190,182.5,85,90,-95,,90,180,195,205,-215,205,477.5,SBD,1
Ruairi McCann,M,Multi-ply,MOE,66.7,67.5,280,-300,-300,,280,180,190,-200,,190,230,-250,-250,,230,700,SBD,1
Andy Cusick,M,Multi-ply,MOE,82.5,82.5,-360,360,-400,,360,240,260,280,,280,290,-310,,,290,930,SBD,1
Alan McMahon,M,Multi-ply,MOE,98,100,-300,300,310,,310,240,262.5,-270,,262.5,265,285,-290,,285,857.5,SBD,1
Deividas Ignatavicius,M,Multi-ply,MOE,106.9,110,280,290,300,,300,230,240,250,,250,290,300,-310,,300,850,SBD,1
Ben Loughrey,M,Multi-ply,MOE,120.2,125,-420,-420,420,,420,-310,310,-325,,310,340,-360,360,,360,1090,SBD,1
Niall Mc Crudden,M,Raw,MO,66.6,67.5,,,,,,85,95,100,,100,130,150,160,,160,260,BD,1
Shane Nugent,M,Raw,MO,99.3,100,,,,,,140,150,-155,,150,270,-290,-290,,270,420,BD,3
Sam McLoughlin,M,Raw,MO,109.7,110,,,,,,130,140,145,,145,220,,,,220,365,BD,2
